[
null,
{"id":1,"expanded":false,"name":"Debug Room","order":1,"parentId":0,"scrollX":832,"scrollY":640},
{"id":2,"expanded":true,"name":"Karel Feilds","order":10,"parentId":4,"scrollX":973.1999999999999,"scrollY":634.8},
{"id":3,"expanded":true,"name":"Velincite Forest 2","order":18,"parentId":15,"scrollX":973.1999999999999,"scrollY":1009.1999999999999},
{"id":4,"expanded":true,"name":"Finished Maps","order":3,"parentId":0,"scrollX":982.8,"scrollY":550.8},
{"id":5,"expanded":true,"name":"Item Shop","order":6,"parentId":15,"scrollX":982.8,"scrollY":550.8},
{"id":6,"expanded":true,"name":"Intro","order":13,"parentId":11,"scrollX":973.1999999999999,"scrollY":634.8},
{"id":7,"expanded":true,"name":"Velorina Cave 1","order":21,"parentId":4,"scrollX":982.8,"scrollY":550.8},
{"id":8,"expanded":true,"name":"Velincite Forest 3","order":19,"parentId":15,"scrollX":534,"scrollY":305},
{"id":9,"expanded":true,"name":"Coranella Guild 2","order":15,"parentId":19,"scrollX":982.8,"scrollY":550.8},
{"id":10,"expanded":true,"name":"Coranella Guild 3","order":16,"parentId":4,"scrollX":982.8,"scrollY":550.8},
{"id":11,"expanded":false,"name":"Monlynth Laberynth","order":24,"parentId":18,"scrollX":890,"scrollY":881},
{"id":12,"expanded":false,"name":"Monlynth Laberynth","order":25,"parentId":11,"scrollX":982.8,"scrollY":550.8},
{"id":13,"expanded":true,"name":"Karel Feilds 2","order":11,"parentId":4,"scrollX":2386.7999999999997,"scrollY":634.8},
null,
{"id":15,"expanded":true,"name":"Coranella Town","order":4,"parentId":4,"scrollX":973.1999999999999,"scrollY":901.1999999999999},
{"id":16,"expanded":true,"name":"Inn","order":5,"parentId":18,"scrollX":982.8,"scrollY":550.8},
{"id":17,"expanded":true,"name":"Velorina Cave 2","order":22,"parentId":7,"scrollX":973.1999999999999,"scrollY":550.8},
{"id":18,"expanded":true,"name":"Coranella Feilds","order":20,"parentId":5,"scrollX":973.1999999999999,"scrollY":624},
{"id":19,"expanded":true,"name":"Coranella Guild","order":14,"parentId":4,"scrollX":982.8,"scrollY":550.8},
{"id":20,"expanded":false,"name":"Velorina Cave 3","order":23,"parentId":17,"scrollX":982.8,"scrollY":550.8},
{"id":21,"expanded":false,"name":"Clear Data","order":2,"parentId":1,"scrollX":728,"scrollY":408},
{"id":22,"expanded":false,"name":"Velincite Forest","order":17,"parentId":18,"scrollX":973.1999999999999,"scrollY":1129.2},
{"id":23,"expanded":false,"name":"Karel Feilds 3","order":12,"parentId":13,"scrollX":982.8,"scrollY":550.8},
{"id":24,"expanded":true,"name":"Ethral Forest","order":7,"parentId":4,"scrollX":973.1999999999999,"scrollY":1501.2},
{"id":25,"expanded":true,"name":"Ethral Forest 2","order":8,"parentId":24,"scrollX":1029.6,"scrollY":541.1999999999999},
{"id":26,"expanded":false,"name":"Ethral Forest 2","order":9,"parentId":25,"scrollX":982.8,"scrollY":550.8}
]